HW8 — Basic Modeling Practice
…
# A tibble: 2 × 4
  .metric .estimator .estimate .config        
  <chr>   <chr>          <dbl> <chr>          
1 rmse    standard    3070.    pre0_mod0_post0
2 rsq     standard       0.909 pre0_mod0_post0

12 Coefficients (Top 30 by |estimate|)

final_fit |>
  extract_fit_parsnip() |>
  tidy() |>
  arrange(desc(abs(estimate))) |>
  head(30)

# A tibble: 24 × 5
   term                                   estimate std.error statistic   p.value
   <chr>                                     <dbl>     <dbl>     <dbl>     <dbl>
 1 seasons_Summer_x_temperature_c          -19109.     5943.     -3.22 1.48e-  3
 2 seasons_Summer                           17345.     6138.      2.83 5.11e-  3
 3 (Intercept)                              17295.      180.     96.1  1.35e-193
 4 dewpoint_c                                8065.     4223.      1.91 5.73e-  2
 5 seasons_Spring                           -5522.     1791.     -3.08 2.28e-  3
 6 seasons_Winter_x_holiday_No.Holiday_x…   -4079.     1895.     -2.15 3.24e-  2
 7 seasons_Winter_x_temperature_c            3833.     1921.      2.00 4.71e-  2
 8 solar_radiation_mj_m2                     3212.      334.      9.62 9.42e- 19
 9 humidity                                 -3001.     1366.     -2.20 2.90e-  2
10 seasons_Spring_x_temperature_c            2337.      599.      3.90 1.24e-  4
# ℹ 14 more rows
…
